{
    "name": "DYN6_RASI_SETUP",
    "description": "",
    "items": [{
        "type": "form",
        "variable": "",
        "var_uid": "",
        "dataType": "",
        "id": "2688869565ef0e40d292cb2024769688",
        "name": "DYN6_RASI_SETUP",
        "description": "",
        "mode": "edit",
        "script": {
            "type": "js",
            "code": "/* BSTI 2020 */\n/* www.bsti.com.mx */\n\n//CSS ATRIBUTES FOR COMPONENTES\n$('.pmdynaform-disabled-textarea > input[type=\"text\"], textarea').css('background-color', '#FFFF99');\n$('.pmdynaform-edit-text, .pmdynaform-edit-file').css('background-color', '#FFFF99');\n$('.pmdynaform-field-text > input[type=\"text\"],textarea[disabled], text').css('background-color', '#F5F5F5');\n$('.pmdynaform-field-dropdown').css('background-color','#FFFF99');\n$('.pmdynaform-disabled-dropdown').css('background-color','#FFFFFF');\n$('.pmdynaform-field-grid').css('background', '#FFFF99');\n$('.pmdynaform-disabled-grid').css('background-color','#FFFFFF');\n$('.pmdynaform-field-submit').find('Button').css({'background-color':'#F05C5E'});\n$('.pmdynaform-field-submit').find('Button').css({'color':'white'});\n$('.pmdynaform-label-subtitle').css('color', '#EB2D2F');\n$('.pmdynaform-label-subtitle').css('font-weight', 'bold');\n$('#F_FILE_OTHER').css('background-color','#FFFF99');\n$('.pmdynaform-multiplefile-control').find('Button').css({'color':'white'});\n$('.pmdynaform-multiplefile-control').find('Button').css({'background-color':'#F05C5E'});\n$('.pmdynaform-file-control').find('Button').css({'color':'white'});\n$('.pmdynaform-file-control').find('Button').css({'background-color':'#F05C5E'});\n$('.pmdynaform-disabled-multipleFile').find('Button').css({'color':'#808080'});\n$('.pmdynaform-disabled-multipleFile').find('Button').css({'background-color':'#F5F5F5'});\n\n$(\"#PN_TITLE\").css({\n  \"border-style\": \"none\",\n  \"border-bottom\": \"6px solid\",\n  \"border-bottom-color\": \"#EB2D2F\"\n});\n$(\"#S_ENGENEERING_USER\").hide();\n$(\"#S_QUALITY_USER\").hide();\nselect_value();\n$(\"#S_TYPE_RASI_SETUP\").setOnchange(function() {\n    select_value();\n});\n\nfunction select_value(){\n    $('#S_ENGENEERING_CHECK_USER').setValue(document.getElementById('form[S_ENGENEERING_USER]').value);\n    $('#S_QUALITY_CHECK_USER').setValue(document.getElementById('form[S_QUALITY_USER]').value);\n}"
        },
        "language": "en",
        "externalLibs": "",
        "printable": false,
        "items": [
            [{
                "type": "panel",
                "id": "PN_TITLE",
                "content": "<link rel=\"stylesheet\" href=\"https://cdnjs.cloudflare.com/ajax/libs/jquery-confirm/3.3.0/jquery-confirm.min.css\">\n<script src=\"https://cdnjs.cloudflare.com/ajax/libs/jquery-confirm/3.3.0/jquery-confirm.min.js\"></script>\n<div id=\"panel_primario\">\n  <table border=\"0\" style=\"width: 99%;\">\n    <tbody>\n      <tr>\n        <td><img id=\"logo\" align=\"left\" src=\"\" width=\"300\" height=\"134\" /></td>\n        <td style=\"color: #000000; font-family: Helvetica; font-size: 16px; text-align: right;\">\n          <strong>PROJECT REQUEST RASI SETUP\n    </strong>\n        </td>\n      </tr>\n    </tbody>\n  </table>\n</div>\n\n<script> \n  \tvar URLactual = window.location+\"\";\n\tvar url_completa =   URLactual.split(\"/\");\n\turl_completa = url_completa[0]+\"/\"+url_completa[1]+\"/\"+url_completa[2]+\"/\"+url_completa[3]+\"/\"+url_completa[4]+\"/\"+url_completa[5];\n\tvar liga = url_completa+\"/1500138255ef0e40b3f3531090636392/LCBU.png\";\n\t$(\"#logo\").attr(\"src\",liga);\n</script>",
                "border": "1px",
                "colSpan": 12
            }],
            [{
                "type": "title",
                "id": "title0000000001",
                "label": "RASI SETUP",
                "colSpan": 12
            }],
            [{
                "type": "subtitle",
                "id": "subtitle0000000001",
                "label": "Select corresponding assignment for each PROCESS and TYPE",
                "colSpan": 12
            }],
            [{
                "type": "dropdown",
                "variable": "S_VALIDATION_TYPE_RASI_SETUP",
                "var_uid": "4113558245ea5e03abec502018555014",
                "dataType": "string",
                "protectedValue": false,
                "id": "S_VALIDATION_TYPE_RASI_SETUP",
                "name": "S_VALIDATION_TYPE_RASI_SETUP",
                "label": "Process:",
                "defaultValue": "",
                "placeholder": "",
                "hint": "",
                "required": false,
                "requiredFieldErrorMessage": "",
                "mode": "parent",
                "datasource": "database",
                "dbConnection": "workflow",
                "dbConnectionLabel": "PM Database",
                "sql": "SELECT DISTINCT D.PROJECT_TYPE,D.PROJECT_TYPE FROM PMT_PJ_PROJECT_TYPES D \nWHERE D.STATUS=1 ORDER BY D.PROJECT_TYPE; ",
                "dataVariable": "",
                "options": [],
                "var_name": "S_VALIDATION_TYPE_RASI_SETUP",
                "colSpan": 6
            }, {
                "type": "dropdown",
                "variable": "S_TYPE_RASI_SETUP",
                "var_uid": "9854871955ef0e40d4668a1083720440",
                "dataType": "string",
                "protectedValue": false,
                "id": "S_TYPE_RASI_SETUP",
                "name": "S_TYPE_RASI_SETUP",
                "label": "Type:",
                "defaultValue": "",
                "placeholder": "",
                "hint": "Selected type",
                "required": true,
                "requiredFieldErrorMessage": "",
                "mode": "parent",
                "datasource": "database",
                "dbConnection": "workflow",
                "dbConnectionLabel": "PM Database",
                "sql": "SELECT D.ID,D.INDEX_TYPE FROM PMT_PJ_PROJECT_TYPES D \nWHERE D.STATUS=1 AND D.PROJECT_TYPE=@@S_VALIDATION_TYPE_RASI_SETUP ORDER BY D.INDEX_TYPE; ",
                "dataVariable": "",
                "options": [],
                "var_name": "S_TYPE_RASI_SETUP",
                "colSpan": 6
            }],
            [{
                "colSpan": 2
            }, {
                "type": "dropdown",
                "variable": "S_ENGENEERING_CHECK_USER",
                "var_uid": "5634986525ef0e40d5d4f87004355570",
                "dataType": "string",
                "protectedValue": false,
                "id": "S_ENGENEERING_CHECK_USER",
                "name": "S_ENGENEERING_CHECK_USER",
                "label": "ENGENEERING:",
                "defaultValue": "",
                "placeholder": "",
                "hint": "",
                "required": false,
                "requiredFieldErrorMessage": "",
                "mode": "parent",
                "datasource": "database",
                "dbConnection": "workflow",
                "dbConnectionLabel": "PM Database",
                "sql": "SELECT '0', '-Select an option-' \nUNION\nSELECT U.USR_UID, CONCAT(U.USR_FIRSTNAME,' ',U.USR_LASTNAME,' --- ',U.USR_EMAIL)  FROM (USERS U LEFT JOIN GROUP_USER GU\n  ON U.USR_UID=GU.USR_UID) LEFT JOIN CONTENT C\n  ON GU.GRP_UID=C.CON_ID WHERE C.CON_VALUE='04PJ ENGINEERING';",
                "dataVariable": "",
                "options": [],
                "var_name": "S_ENGENEERING_CHECK_USER",
                "colSpan": 8
            }, {
                "type": "text",
                "variable": "S_ENGENEERING_USER",
                "var_uid": "8041069005ef0e40d4ab058044847739",
                "dataType": "string",
                "protectedValue": false,
                "id": "S_ENGENEERING_USER",
                "name": "S_ENGENEERING_USER",
                "label": "",
                "defaultValue": "",
                "placeholder": "",
                "hint": "",
                "required": false,
                "requiredFieldErrorMessage": "",
                "textTransform": "none",
                "validate": "",
                "validateMessage": "",
                "maxLength": 1000,
                "formula": "",
                "mode": "parent",
                "operation": "",
                "dbConnection": "workflow",
                "dbConnectionLabel": "PM Database",
                "sql": "SELECT\n\tPRS.ENGENEERING_CHECK_USR\nFROM\n\tPMT_PJ_PROCESS_RASI_SETUP PRS\nWHERE\n    PRS.TYPE_ID = @@S_TYPE_RASI_SETUP\nORDER BY\n\tID DESC\nLIMIT\n\t1;",
                "var_name": "S_ENGENEERING_USER",
                "colSpan": 2
            }],
            [{
                "colSpan": 2
            }, {
                "type": "dropdown",
                "variable": "S_QUALITY_CHECK_USER",
                "var_uid": "1378181495ef0e40d4402e0078245276",
                "dataType": "string",
                "protectedValue": false,
                "id": "S_QUALITY_CHECK_USER",
                "name": "S_QUALITY_CHECK_USER",
                "label": "QUALITY:",
                "defaultValue": "",
                "placeholder": "",
                "hint": "",
                "required": false,
                "requiredFieldErrorMessage": "",
                "mode": "parent",
                "datasource": "database",
                "dbConnection": "workflow",
                "dbConnectionLabel": "PM Database",
                "sql": "SELECT '0', '-Select an option-' \nUNION\nSELECT U.USR_UID, CONCAT(U.USR_FIRSTNAME,' ',U.USR_LASTNAME,' --- ',U.USR_EMAIL)  FROM (USERS U LEFT JOIN GROUP_USER GU\n  ON U.USR_UID=GU.USR_UID) LEFT JOIN CONTENT C\n  ON GU.GRP_UID=C.CON_ID WHERE C.CON_VALUE='04PJ QUALITY';",
                "dataVariable": "",
                "options": [],
                "var_name": "S_QUALITY_CHECK_USER",
                "colSpan": 8
            }, {
                "type": "text",
                "variable": "S_QUALITY_USER",
                "var_uid": "5196862015ef0e40d5a68e7091363401",
                "dataType": "string",
                "protectedValue": false,
                "id": "S_QUALITY_USER",
                "name": "S_QUALITY_USER",
                "label": "",
                "defaultValue": "",
                "placeholder": "",
                "hint": "",
                "required": false,
                "requiredFieldErrorMessage": "",
                "textTransform": "none",
                "validate": "",
                "validateMessage": "",
                "maxLength": 1000,
                "formula": "",
                "mode": "parent",
                "operation": "",
                "dbConnection": "workflow",
                "dbConnectionLabel": "PM Database",
                "sql": "SELECT\n\tPRS.QUALITY_CHECK_USR\nFROM\n\tPMT_PJ_PROCESS_RASI_SETUP PRS\nWHERE\n    PRS.TYPE_ID = @@S_TYPE_RASI_SETUP\nORDER BY\n\tID DESC\nLIMIT\n\t1;",
                "var_name": "S_QUALITY_USER",
                "colSpan": 2
            }],
            [{
                "colSpan": 5
            }, {
                "type": "submit",
                "id": "submit0000000001",
                "name": "submit0000000001",
                "label": "SEND",
                "colSpan": 2
            }, {
                "colSpan": 5
            }]
        ],
        "variables": [{
            "key": null,
            "type": "string",
            "value": "null",
            "var_uid": "4113558245ea5e03abec502018555014",
            "prj_uid": "1470081615ddaa06442a500075126187",
            "var_name": "S_VALIDATION_TYPE_RASI_SETUP",
            "var_field_type": "string",
            "var_field_size": 10,
            "var_label": "string",
            "var_dbconnection": "workflow",
            "var_dbconnection_label": "PM Database",
            "var_sql": "",
            "var_null": 0,
            "var_default": "",
            "var_accepted_values": "[]",
            "inp_doc_uid": "",
            "var_name_old": "S_VALIDATION_TYPE_RASI_SETUP"
        }, {
            "var_uid": "9854871955ef0e40d4668a1083720440",
            "prj_uid": "1470081615ddaa06442a500075126187",
            "var_name": "S_TYPE_RASI_SETUP",
            "var_field_type": "string",
            "var_field_size": 10,
            "var_label": "string",
            "var_dbconnection": "workflow",
            "var_dbconnection_label": "PM Database",
            "var_sql": "",
            "var_null": 0,
            "var_default": "",
            "var_accepted_values": "[]",
            "inp_doc_uid": ""
        }, {
            "var_uid": "5634986525ef0e40d5d4f87004355570",
            "prj_uid": "1470081615ddaa06442a500075126187",
            "var_name": "S_ENGENEERING_CHECK_USER",
            "var_field_type": "string",
            "var_field_size": 10,
            "var_label": "string",
            "var_dbconnection": "workflow",
            "var_dbconnection_label": "PM Database",
            "var_sql": "",
            "var_null": 0,
            "var_default": "",
            "var_accepted_values": "[]",
            "inp_doc_uid": ""
        }, {
            "var_uid": "8041069005ef0e40d4ab058044847739",
            "prj_uid": "1470081615ddaa06442a500075126187",
            "var_name": "S_ENGENEERING_USER",
            "var_field_type": "string",
            "var_field_size": 10,
            "var_label": "string",
            "var_dbconnection": "workflow",
            "var_dbconnection_label": "PM Database",
            "var_sql": "",
            "var_null": 0,
            "var_default": "",
            "var_accepted_values": "[]",
            "inp_doc_uid": ""
        }, {
            "var_uid": "1378181495ef0e40d4402e0078245276",
            "prj_uid": "1470081615ddaa06442a500075126187",
            "var_name": "S_QUALITY_CHECK_USER",
            "var_field_type": "string",
            "var_field_size": 10,
            "var_label": "string",
            "var_dbconnection": "workflow",
            "var_dbconnection_label": "PM Database",
            "var_sql": "",
            "var_null": 0,
            "var_default": "",
            "var_accepted_values": "[]",
            "inp_doc_uid": ""
        }, {
            "var_uid": "5196862015ef0e40d5a68e7091363401",
            "prj_uid": "1470081615ddaa06442a500075126187",
            "var_name": "S_QUALITY_USER",
            "var_field_type": "string",
            "var_field_size": 10,
            "var_label": "string",
            "var_dbconnection": "workflow",
            "var_dbconnection_label": "PM Database",
            "var_sql": "",
            "var_null": 0,
            "var_default": "",
            "var_accepted_values": "[]",
            "inp_doc_uid": ""
        }]
    }]
}