{
    "name": "DYN7_RASI_SETUP_CASE",
    "description": "",
    "items": [{
        "type": "form",
        "variable": "",
        "var_uid": "",
        "dataType": "",
        "id": "9756532605ef0e40d296e23052596700",
        "name": "DYN7_RASI_SETUP_CASE",
        "description": "",
        "mode": "edit",
        "script": {
            "type": "js",
            "code": "/* BSTI 2020 */\n/* www.bsti.com.mx */\n\n//CSS ATRIBUTES FOR COMPONENTES\n$('.pmdynaform-disabled-textarea > input[type=\"text\"], textarea').css('background-color', '#FFFF99');\n$('.pmdynaform-edit-text, .pmdynaform-edit-file').css('background-color', '#FFFF99');\n$('.pmdynaform-field-text > input[type=\"text\"],textarea[disabled], text').css('background-color', '#F5F5F5');\n$('.pmdynaform-field-dropdown').css('background-color','#FFFF99');\n$('.pmdynaform-disabled-dropdown').css('background-color','#FFFFFF');\n$('.pmdynaform-field-grid').css('background', '#FFFF99');\n$('.pmdynaform-disabled-grid').css('background-color','#FFFFFF');\n$('.pmdynaform-field-submit').find('Button').css({'background-color':'#F05C5E'});\n$('.pmdynaform-field-submit').find('Button').css({'color':'white'});\n$('.pmdynaform-label-subtitle').css('color', '#EB2D2F');\n$('.pmdynaform-label-subtitle').css('font-weight', 'bold');\n$('#F_FILE_OTHER').css('background-color','#FFFF99');\n$('.pmdynaform-multiplefile-control').find('Button').css({'color':'white'});\n$('.pmdynaform-multiplefile-control').find('Button').css({'background-color':'#F05C5E'});\n$('.pmdynaform-file-control').find('Button').css({'color':'white'});\n$('.pmdynaform-file-control').find('Button').css({'background-color':'#F05C5E'});\n$('.pmdynaform-disabled-multipleFile').find('Button').css({'color':'#808080'});\n$('.pmdynaform-disabled-multipleFile').find('Button').css({'background-color':'#F5F5F5'});\n\n$(\"#PN_TITLE\").css({\n  \"border-style\": \"none\",\n  \"border-bottom\": \"6px solid\",\n  \"border-bottom-color\": \"#EB2D2F\"\n});\n$(\"#S_DESIGN_CHECK_USER\").hide();\n$(\"#S_INSTALLATION_CHECK_USER\").hide();\n$(\"#S_OPERATION_CHECK_USER\").hide();\n$(\"#S_QSE_CHECK_USER\").hide();\n$(\"#S_PERFORMANCE_CHECK_USER\").hide();\n$(\"#S_VALIDATION_TYPE\").hide();\nnot_found();\n$(\"#not_found\").hide();\n\n$(\"#S_CASE_NUMBER\").setOnchange(function() {\n    if(document.getElementById('form[S_DESIGN_CHECK_USER]').value == \"\") {\n      not_found();\n    } else {\n      is_found();\n      $('#S_GROUP_DESIGN').setValue(document.getElementById('form[S_DESIGN_CHECK_USER]').value);\n      $('#S_GROUP_INSTALLATION').setValue(document.getElementById('form[S_INSTALLATION_CHECK_USER]').value);\n      $('#S_GROUP_OPERATION').setValue(document.getElementById('form[S_OPERATION_CHECK_USER]').value);\n      $('#S_GROUP_QSE').setValue(document.getElementById('form[S_QSE_CHECK_USER]').value);\n      $('#S_GROUP_PERFORMANCE').setValue(document.getElementById('form[S_PERFORMANCE_CHECK_USER]').value);\n      if(\n        document.getElementById('form[S_VALIDATION_TYPE]').value == 2 ||\n        document.getElementById('form[S_VALIDATION_TYPE]').value == 3 ||\n        document.getElementById('form[S_VALIDATION_TYPE]').value == 7\n      ){\n        $(\"#S_GROUP_QSE\").show();\n      } else {\n        $(\"#S_GROUP_QSE\").hide();\n      }\n    }\n});\n\nfunction is_found() {\n  $(\"#not_found\").hide();\n  $('#S_GROUP_DESIGN').show();\n  $('#S_GROUP_INSTALLATION').show();\n  $('#S_GROUP_OPERATION').show();\n  $('#S_GROUP_QSE').show();\n  $('#S_GROUP_PERFORMANCE').show();\n  $('#label0000000001').show();\n  $('#S_INFORMATION_CASE').show();\n  $('#S_INFORMATION_CASE_DATA').show();\n  $('#submit0000000001').show();\n}\nfunction not_found() {\n  $(\"#not_found\").show();\n  $('#S_GROUP_DESIGN').hide();\n  $('#S_GROUP_INSTALLATION').hide();\n  $('#S_GROUP_OPERATION').hide();\n  $('#S_GROUP_QSE').hide();\n  $('#S_GROUP_PERFORMANCE').hide();\n  $('#label0000000001').hide();\n  $('#S_INFORMATION_CASE').hide();\n  $('#S_INFORMATION_CASE_DATA').hide();\n  $('#submit0000000001').hide();\n}"
        },
        "language": "en",
        "externalLibs": "",
        "printable": false,
        "items": [
            [{
                "type": "panel",
                "id": "panel0000000001",
                "content": "<link rel=\"stylesheet\" href=\"https://cdnjs.cloudflare.com/ajax/libs/jquery-confirm/3.3.0/jquery-confirm.min.css\">\n<script src=\"https://cdnjs.cloudflare.com/ajax/libs/jquery-confirm/3.3.0/jquery-confirm.min.js\"></script>\n<div id=\"panel_primario\">\n  <table border=\"0\" style=\"width: 99%;\">\n    <tbody>\n      <tr>\n        <td><img id=\"logo\" align=\"left\" src=\"\" width=\"300\" height=\"134\" /></td>\n        <td style=\"color: #000000; font-family: Helvetica; font-size: 16px; text-align: right;\">\n          <strong>CASE RASI SETUP\n    </strong>\n        </td>\n      </tr>\n    </tbody>\n  </table>\n</div>\n\n<script> \n  \tvar URLactual = window.location+\"\";\n\tvar url_completa =   URLactual.split(\"/\");\n\turl_completa = url_completa[0]+\"/\"+url_completa[1]+\"/\"+url_completa[2]+\"/\"+url_completa[3]+\"/\"+url_completa[4]+\"/\"+url_completa[5];\n\tvar liga = url_completa+\"/1500138255ef0e40b3f3531090636392/LCBU.png\";\n\t$(\"#logo\").attr(\"src\",liga);\n</script>",
                "border": "1px",
                "colSpan": 12
            }],
            [{
                "type": "title",
                "id": "title0000000001",
                "label": "CASE RASI SETUP",
                "colSpan": 12
            }],
            [{
                "type": "subtitle",
                "id": "subtitle0000000001",
                "label": "Search by case number and select corresponding assignment",
                "colSpan": 12
            }],
            [{
                "type": "text",
                "variable": "S_CASE_NUMBER",
                "var_uid": "1027336645ef0e40d58fc57079704956",
                "dataType": "string",
                "protectedValue": false,
                "id": "S_CASE_NUMBER",
                "name": "S_CASE_NUMBER",
                "label": "Case number:",
                "defaultValue": "",
                "placeholder": "",
                "hint": "Only numbers allowed",
                "required": true,
                "requiredFieldErrorMessage": "",
                "textTransform": "none",
                "validate": "^[-+]?\\d+(\\.\\d+)?$",
                "validateMessage": "Only numbers allowed",
                "maxLength": "5",
                "formula": "",
                "mode": "parent",
                "operation": "",
                "dbConnection": "workflow",
                "dbConnectionLabel": "PM Database",
                "sql": "",
                "var_name": "S_CASE_NUMBER",
                "colSpan": 6
            }, {
                "type": "button",
                "id": "B_SEARCH",
                "name": "B_SEARCH",
                "label": "SEARCH",
                "colSpan": 6
            }],
            [{
                "type": "label",
                "id": "label0000000001",
                "label": "Selected case:",
                "colSpan": 2
            }, {
                "type": "text",
                "variable": "S_INFORMATION_CASE",
                "var_uid": "9058580735ef0e40d48c849008527329",
                "dataType": "string",
                "protectedValue": false,
                "id": "S_INFORMATION_CASE",
                "name": "S_INFORMATION_CASE",
                "label": "",
                "defaultValue": "",
                "placeholder": "",
                "hint": "",
                "required": false,
                "requiredFieldErrorMessage": "",
                "textTransform": "none",
                "validate": "",
                "validateMessage": "",
                "maxLength": 1000,
                "formula": "",
                "mode": "disabled",
                "operation": "",
                "dbConnection": "workflow",
                "dbConnectionLabel": "PM Database",
                "sql": "SELECT\n    CONCAT(\n        'Case number: ', \n        PR.CASE_NUMBER,\n        ' | Type: ' ,\n        PT.INDEX_TYPE,\n        ' | Validation Type: ',\n        VT.VALIDATION_TYPE\n    )\nFROM\n    PMT_PRP_REQUEST PR\nINNER JOIN\n\tPMT_PRP_REQUEST_DETAIL PRD ON PR.CASE_NUMBER = PRD.CASE_NUMBER\nINNER JOIN\n    PMT_PJ_PROJECT_TYPES PT ON PRD.S_TYPE = PT.ID\nINNER JOIN\n    PMT_PJ_VALIDATION_TYPES VT ON PRD.S_VALIDATION_TYPE = VT.ID\nWHERE\n    PR.CASE_NUMBER = @@S_CASE_NUMBER\nORDER BY\n\tPR.ID DESC\nLIMIT\n\t1;",
                "var_name": "S_INFORMATION_CASE",
                "colSpan": 8
            }, {
                "type": "text",
                "variable": "S_VALIDATION_TYPE",
                "var_uid": "9869689005ef0e40d521746091822234",
                "dataType": "string",
                "protectedValue": false,
                "id": "S_VALIDATION_TYPE",
                "name": "S_VALIDATION_TYPE",
                "label": "Validation type",
                "defaultValue": "",
                "placeholder": "",
                "hint": "",
                "required": false,
                "requiredFieldErrorMessage": "",
                "textTransform": "none",
                "validate": "",
                "validateMessage": "",
                "maxLength": 1000,
                "formula": "",
                "mode": "disabled",
                "operation": "",
                "dbConnection": "workflow",
                "dbConnectionLabel": "PM Database",
                "sql": "SELECT\n    S_VALIDATION_TYPE\nFROM\n\tPMT_PRP_REQUEST_DETAIL\nWHERE\n    CASE_NUMBER = @@S_CASE_NUMBER\nORDER BY\n\tID DESC\nLIMIT\n\t1;",
                "var_name": "S_VALIDATION_TYPE",
                "colSpan": 2
            }],
            [{
                "colSpan": 2
            }, {
                "type": "text",
                "variable": "S_INFORMATION_CASE_DATA",
                "var_uid": "9515346325ef0e40d4cf454050826484",
                "dataType": "string",
                "protectedValue": false,
                "id": "S_INFORMATION_CASE_DATA",
                "name": "S_INFORMATION_CASE_DATA",
                "label": "",
                "defaultValue": "",
                "placeholder": "",
                "hint": "",
                "required": false,
                "requiredFieldErrorMessage": "",
                "textTransform": "none",
                "validate": "",
                "validateMessage": "",
                "maxLength": 1000,
                "formula": "",
                "mode": "disabled",
                "operation": "",
                "dbConnection": "workflow",
                "dbConnectionLabel": "PM Database",
                "sql": "SELECT\n    CONCAT(\n        ' Plant: ',\n        PR.S_PLANT_NAME,\n        ' | Requestor: ',\n        PR.S_REQUESTER_NAME,\n      \t' | Project general description: ',\n      \tPRD.S_PROCESS_CHANGE_DETAIL\n    )\nFROM\n    PMT_PRP_REQUEST PR\nINNER JOIN\n\tPMT_PRP_REQUEST_DETAIL PRD ON PR.CASE_NUMBER = PRD.CASE_NUMBER\nINNER JOIN\n    PMT_PJ_PROJECT_TYPES PT ON PRD.S_TYPE = PT.ID\nINNER JOIN\n    PMT_PJ_VALIDATION_TYPES VT ON PRD.S_VALIDATION_TYPE = VT.ID\nWHERE\n    PR.CASE_NUMBER = @@S_CASE_NUMBER\nORDER BY\n\tPR.ID DESC\nLIMIT\n\t1;",
                "var_name": "S_INFORMATION_CASE_DATA",
                "colSpan": 8
            }, {
                "colSpan": 2
            }],
            [{
                "colSpan": 2
            }, {
                "type": "subtitle",
                "id": "not_found",
                "label": "Case not found, check your case number.",
                "colSpan": 8
            }, {
                "colSpan": 2
            }],
            [{
                "colSpan": 2
            }, {
                "type": "dropdown",
                "variable": "S_GROUP_DESIGN",
                "var_uid": "9664793285ef0e40d4127e2062752506",
                "dataType": "string",
                "protectedValue": false,
                "id": "S_GROUP_DESIGN",
                "name": "S_GROUP_DESIGN",
                "label": "Design check user:",
                "defaultValue": "",
                "placeholder": "",
                "hint": "",
                "required": false,
                "requiredFieldErrorMessage": "",
                "mode": "parent",
                "datasource": "database",
                "dbConnection": "workflow",
                "dbConnectionLabel": "PM Database",
                "sql": "SELECT '0', '-Select an option-' \n    UNION\nSELECT\n    U.USR_UID,\n    CONCAT(\n        U.USR_FIRSTNAME,\n        ' ',\n        U.USR_LASTNAME,\n        ' --- ',\n        U.USR_EMAIL\n    )\nFROM\n    USERS U\nLEFT JOIN\n    GROUP_USER GU ON U.USR_UID = GU.USR_UID\nLEFT JOIN\n    CONTENT C ON GU.GRP_UID = C.CON_ID\nWHERE\n    ((@@S_VALIDATION_TYPE = 2 OR @@S_VALIDATION_TYPE = 3 OR @@S_VALIDATION_TYPE = 5 OR @@S_VALIDATION_TYPE = 7 OR @@S_VALIDATION_TYPE = 10) AND C.CON_VALUE = '04PJ TOM')\n    OR\n    ((@@S_VALIDATION_TYPE = 1 OR @@S_VALIDATION_TYPE = 4 OR @@S_VALIDATION_TYPE = 6 OR @@S_VALIDATION_TYPE = 8) AND C.CON_VALUE = '04PJ ENGINEERING')\n    OR\n    ((@@S_VALIDATION_TYPE = 9 ) AND C.CON_VALUE = '04PJ QUALITY')\n    ;\n/*\n01 New Facility\n02 Conversion in existing Line (CSD to Stills)\n03 New CSD line\n04 New Production Line Stills, Plant Based & Dairy\n05 New Beverage\n06 New Process\n07 Equipment Change\n08 New Technology\t\t\n09 Process Change Tipo 1\n10 Process Change Tipo 2\n*/",
                "dataVariable": "",
                "options": [],
                "var_name": "S_GROUP_DESIGN",
                "colSpan": 8
            }, {
                "type": "text",
                "variable": "S_DESIGN_CHECK_USER",
                "var_uid": "5687201445ef0e40d4f3f36002423136",
                "dataType": "string",
                "protectedValue": false,
                "id": "S_DESIGN_CHECK_USER",
                "name": "S_DESIGN_CHECK_USER",
                "label": "",
                "defaultValue": "",
                "placeholder": "",
                "hint": "",
                "required": false,
                "requiredFieldErrorMessage": "",
                "textTransform": "none",
                "validate": "",
                "validateMessage": "",
                "maxLength": "32",
                "formula": "",
                "mode": "disabled",
                "operation": "",
                "dbConnection": "workflow",
                "dbConnectionLabel": "PM Database",
                "sql": "SELECT\n\tCRS.DESIGN_CHECK_USR\nFROM\n\tPMT_PJ_CASES_RASI_SETUP CRS\nWHERE\n    CRS.CASE_NUMBER = @@S_CASE_NUMBER\nORDER BY\n\tID DESC\nLIMIT\n\t1;",
                "var_name": "S_DESIGN_CHECK_USER",
                "colSpan": 2
            }],
            [{
                "colSpan": 2
            }, {
                "type": "dropdown",
                "variable": "S_GROUP_INSTALLATION",
                "var_uid": "2555406205ef0e40d518053070941353",
                "dataType": "string",
                "protectedValue": false,
                "id": "S_GROUP_INSTALLATION",
                "name": "S_GROUP_INSTALLATION",
                "label": "Installation check user:",
                "defaultValue": "",
                "placeholder": "",
                "hint": "",
                "required": false,
                "requiredFieldErrorMessage": "",
                "mode": "parent",
                "datasource": "database",
                "dbConnection": "workflow",
                "dbConnectionLabel": "PM Database",
                "sql": "SELECT '0', '-Select an option-' \n    UNION\nSELECT\n    U.USR_UID,\n    CONCAT(\n        U.USR_FIRSTNAME,\n        ' ',\n        U.USR_LASTNAME,\n        ' --- ',\n        U.USR_EMAIL\n    )\nFROM\n    USERS U\nLEFT JOIN\n    GROUP_USER GU ON U.USR_UID = GU.USR_UID\nLEFT JOIN\n    CONTENT C ON GU.GRP_UID = C.CON_ID\nWHERE\n    ((@@S_VALIDATION_TYPE = 2 OR @@S_VALIDATION_TYPE = 3 OR @@S_VALIDATION_TYPE = 5 OR @@S_VALIDATION_TYPE = 7 OR @@S_VALIDATION_TYPE = 10) AND C.CON_VALUE = '04PJ TOM')\n    OR\n    ((@@S_VALIDATION_TYPE = 1 OR @@S_VALIDATION_TYPE = 4 OR @@S_VALIDATION_TYPE = 6 OR @@S_VALIDATION_TYPE = 8) AND C.CON_VALUE = '04PJ ENGINEERING')\n    OR\n    ((@@S_VALIDATION_TYPE = 9 ) AND C.CON_VALUE = '04PJ QUALITY')\n    ;\n/*\n01 New Facility\n02 Conversion in existing Line (CSD to Stills)\n03 New CSD line\n04 New Production Line Stills, Plant Based & Dairy\n05 New Beverage\n06 New Process\n07 Equipment Change\n08 New Technology\t\t\n09 Process Change Tipo 1\n10 Process Change Tipo 2\n*/",
                "dataVariable": "",
                "options": [],
                "var_name": "S_GROUP_INSTALLATION",
                "colSpan": 8
            }, {
                "type": "text",
                "variable": "S_INSTALLATION_CHECK_USER",
                "var_uid": "1753404275ef0e40d4a5571056708843",
                "dataType": "string",
                "protectedValue": false,
                "id": "S_INSTALLATION_CHECK_USER",
                "name": "S_INSTALLATION_CHECK_USER",
                "label": "",
                "defaultValue": "",
                "placeholder": "",
                "hint": "",
                "required": false,
                "requiredFieldErrorMessage": "",
                "textTransform": "none",
                "validate": "",
                "validateMessage": "",
                "maxLength": 1000,
                "formula": "",
                "mode": "disabled",
                "operation": "",
                "dbConnection": "workflow",
                "dbConnectionLabel": "PM Database",
                "sql": "SELECT\n\tCRS.INSTALLATION_CHECK_USR\nFROM\n\tPMT_PJ_CASES_RASI_SETUP CRS\nWHERE\n    CRS.CASE_NUMBER = @@S_CASE_NUMBER\nORDER BY\n\tID DESC\nLIMIT\n\t1;",
                "var_name": "S_INSTALLATION_CHECK_USER",
                "colSpan": 2
            }],
            [{
                "colSpan": 2
            }, {
                "type": "dropdown",
                "variable": "S_GROUP_OPERATION",
                "var_uid": "7631959425ef0e40d519e35082445174",
                "dataType": "string",
                "protectedValue": false,
                "id": "S_GROUP_OPERATION",
                "name": "S_GROUP_OPERATION",
                "label": "Operation check user:",
                "defaultValue": "",
                "placeholder": "",
                "hint": "",
                "required": false,
                "requiredFieldErrorMessage": "",
                "mode": "parent",
                "datasource": "database",
                "dbConnection": "workflow",
                "dbConnectionLabel": "PM Database",
                "sql": "SELECT '0', '-Select an option-' \n    UNION\nSELECT\n    U.USR_UID,\n    CONCAT(\n        U.USR_FIRSTNAME,\n        ' ',\n        U.USR_LASTNAME,\n        ' --- ',\n        U.USR_EMAIL\n    )\nFROM\n    USERS U\nLEFT JOIN\n    GROUP_USER GU ON U.USR_UID = GU.USR_UID\nLEFT JOIN\n    CONTENT C ON GU.GRP_UID = C.CON_ID\nWHERE\n    ((@@S_VALIDATION_TYPE = 2 OR @@S_VALIDATION_TYPE = 3 OR @@S_VALIDATION_TYPE = 7 OR @@S_VALIDATION_TYPE = 10) AND C.CON_VALUE = '04PJ TOM')\n    OR\n    ((@@S_VALIDATION_TYPE = 1 OR @@S_VALIDATION_TYPE = 4 OR @@S_VALIDATION_TYPE = 5 OR @@S_VALIDATION_TYPE = 6 OR @@S_VALIDATION_TYPE = 8 OR @@S_VALIDATION_TYPE = 9) AND C.CON_VALUE = '04PJ QUALITY')\n    ;\n/*\n01 New Facility\n02 Conversion in existing Line (CSD to Stills)\n03 New CSD line\n04 New Production Line Stills, Plant Based & Dairy\n05 New Beverage\n06 New Process\n07 Equipment Change\n08 New Technology\t\t\n09 Process Change Tipo 1\n10 Process Change Tipo 2\n*/",
                "dataVariable": "",
                "options": [],
                "var_name": "S_GROUP_OPERATION",
                "colSpan": 8
            }, {
                "type": "text",
                "variable": "S_OPERATION_CHECK_USER",
                "var_uid": "5165927405ef0e40d567ad2094076342",
                "dataType": "string",
                "protectedValue": false,
                "id": "S_OPERATION_CHECK_USER",
                "name": "S_OPERATION_CHECK_USER",
                "label": "",
                "defaultValue": "",
                "placeholder": "",
                "hint": "",
                "required": false,
                "requiredFieldErrorMessage": "",
                "textTransform": "none",
                "validate": "",
                "validateMessage": "",
                "maxLength": 1000,
                "formula": "",
                "mode": "disabled",
                "operation": "",
                "dbConnection": "workflow",
                "dbConnectionLabel": "PM Database",
                "sql": "SELECT\n\tCRS.OPERATION_CHECK_USR\nFROM\n\tPMT_PJ_CASES_RASI_SETUP CRS\nWHERE\n    CRS.CASE_NUMBER = @@S_CASE_NUMBER\nORDER BY\n\tID DESC\nLIMIT\n\t1;",
                "var_name": "S_OPERATION_CHECK_USER",
                "colSpan": 2
            }],
            [{
                "colSpan": 2
            }, {
                "type": "dropdown",
                "variable": "S_GROUP_QSE",
                "var_uid": "2640457985ef0e40d56f585003405364",
                "dataType": "string",
                "protectedValue": false,
                "id": "S_GROUP_QSE",
                "name": "S_GROUP_QSE",
                "label": "QSE check user:",
                "defaultValue": "",
                "placeholder": "",
                "hint": "",
                "required": false,
                "requiredFieldErrorMessage": "",
                "mode": "parent",
                "datasource": "database",
                "dbConnection": "workflow",
                "dbConnectionLabel": "PM Database",
                "sql": "SELECT '0', '-Select an option-' \n    UNION\nSELECT\n    U.USR_UID,\n    CONCAT(\n        U.USR_FIRSTNAME,\n        ' ',\n        U.USR_LASTNAME,\n        ' --- ',\n        U.USR_EMAIL\n    )\nFROM\n    USERS U\nLEFT JOIN\n    GROUP_USER GU ON U.USR_UID = GU.USR_UID\nLEFT JOIN\n    CONTENT C ON GU.GRP_UID = C.CON_ID\nWHERE\n    ((@@S_VALIDATION_TYPE = 2 OR @@S_VALIDATION_TYPE = 3 OR @@S_VALIDATION_TYPE = 7) AND C.CON_VALUE = '04PJ QUALITY')\n    ;\n/*\n01 New Facility\n02 Conversion in existing Line (CSD to Stills)\n03 New CSD line\n04 New Production Line Stills, Plant Based & Dairy\n05 New Beverage\n06 New Process\n07 Equipment Change\n08 New Technology\t\t\n09 Process Change Tipo 1\n10 Process Change Tipo 2\n*/",
                "dataVariable": "",
                "options": [],
                "var_name": "S_GROUP_QSE",
                "colSpan": 8
            }, {
                "type": "text",
                "variable": "S_QSE_CHECK_USER",
                "var_uid": "3394512125ef0e40d5bf970044674573",
                "dataType": "string",
                "protectedValue": false,
                "id": "S_QSE_CHECK_USER",
                "name": "S_QSE_CHECK_USER",
                "label": "",
                "defaultValue": "",
                "placeholder": "",
                "hint": "",
                "required": false,
                "requiredFieldErrorMessage": "",
                "textTransform": "none",
                "validate": "",
                "validateMessage": "",
                "maxLength": 1000,
                "formula": "",
                "mode": "disabled",
                "operation": "",
                "dbConnection": "workflow",
                "dbConnectionLabel": "PM Database",
                "sql": "SELECT\n\tCRS.QSE_CHECK_USR\nFROM\n\tPMT_PJ_CASES_RASI_SETUP CRS\nWHERE\n    CRS.CASE_NUMBER = @@S_CASE_NUMBER\nORDER BY\n\tID DESC\nLIMIT\n\t1;",
                "var_name": "S_QSE_CHECK_USER",
                "colSpan": 2
            }],
            [{
                "colSpan": 2
            }, {
                "type": "dropdown",
                "variable": "S_GROUP_PERFORMANCE",
                "var_uid": "5448977135ef0e40d597583081038042",
                "dataType": "string",
                "protectedValue": false,
                "id": "S_GROUP_PERFORMANCE",
                "name": "S_GROUP_PERFORMANCE",
                "label": "Performance check user:",
                "defaultValue": "",
                "placeholder": "",
                "hint": "",
                "required": false,
                "requiredFieldErrorMessage": "",
                "mode": "parent",
                "datasource": "database",
                "dbConnection": "workflow",
                "dbConnectionLabel": "PM Database",
                "sql": "SELECT '0', '-Select an option-' \n    UNION\nSELECT\n    U.USR_UID,\n    CONCAT(\n        U.USR_FIRSTNAME,\n        ' ',\n        U.USR_LASTNAME,\n        ' --- ',\n        U.USR_EMAIL\n    )\nFROM\n    USERS U\nLEFT JOIN\n    GROUP_USER GU ON U.USR_UID = GU.USR_UID\nLEFT JOIN\n    CONTENT C ON GU.GRP_UID = C.CON_ID\nWHERE\n    ((@@S_VALIDATION_TYPE = 1 OR @@S_VALIDATION_TYPE = 2 OR @@S_VALIDATION_TYPE = 3 OR @@S_VALIDATION_TYPE = 4  OR @@S_VALIDATION_TYPE = 5 OR @@S_VALIDATION_TYPE = 6 OR @@S_VALIDATION_TYPE = 7 OR @@S_VALIDATION_TYPE = 8 OR @@S_VALIDATION_TYPE = 9) AND C.CON_VALUE = '04PJ QUALITY')\n    OR\n    ((@@S_VALIDATION_TYPE = 10) AND C.CON_VALUE = '04PJ TOM')\n    ;\n/*\n01 New Facility\n02 Conversion in existing Line (CSD to Stills)\n03 New CSD line\n04 New Production Line Stills, Plant Based & Dairy\n05 New Beverage\n06 New Process\n07 Equipment Change\n08 New Technology\t\t\n09 Process Change Tipo 1\n10 Process Change Tipo 2\n*/",
                "dataVariable": "",
                "options": [],
                "var_name": "S_GROUP_PERFORMANCE",
                "colSpan": 8
            }, {
                "type": "text",
                "variable": "S_PERFORMANCE_CHECK_USER",
                "var_uid": "8083042675ef0e40d508e89066618227",
                "dataType": "string",
                "protectedValue": false,
                "id": "S_PERFORMANCE_CHECK_USER",
                "name": "S_PERFORMANCE_CHECK_USER",
                "label": "",
                "defaultValue": "",
                "placeholder": "",
                "hint": "",
                "required": false,
                "requiredFieldErrorMessage": "",
                "textTransform": "none",
                "validate": "",
                "validateMessage": "",
                "maxLength": 1000,
                "formula": "",
                "mode": "disabled",
                "operation": "",
                "dbConnection": "workflow",
                "dbConnectionLabel": "PM Database",
                "sql": "SELECT\n\tCRS.PERFORMANCE_CHECK_USR\nFROM\n\tPMT_PJ_CASES_RASI_SETUP CRS\nWHERE\n    CRS.CASE_NUMBER = @@S_CASE_NUMBER\nORDER BY\n\tID DESC\nLIMIT\n\t1;",
                "var_name": "S_PERFORMANCE_CHECK_USER",
                "colSpan": 2
            }],
            [{
                "colSpan": 5
            }, {
                "type": "submit",
                "id": "submit0000000001",
                "name": "submit0000000001",
                "label": "SEND",
                "colSpan": 2
            }, {
                "colSpan": 5
            }]
        ],
        "variables": [{
            "var_uid": "1027336645ef0e40d58fc57079704956",
            "prj_uid": "1470081615ddaa06442a500075126187",
            "var_name": "S_CASE_NUMBER",
            "var_field_type": "string",
            "var_field_size": 10,
            "var_label": "string",
            "var_dbconnection": "workflow",
            "var_dbconnection_label": "PM Database",
            "var_sql": "",
            "var_null": 0,
            "var_default": "",
            "var_accepted_values": "[]",
            "inp_doc_uid": ""
        }, {
            "var_uid": "9058580735ef0e40d48c849008527329",
            "prj_uid": "1470081615ddaa06442a500075126187",
            "var_name": "S_INFORMATION_CASE",
            "var_field_type": "string",
            "var_field_size": 10,
            "var_label": "string",
            "var_dbconnection": "workflow",
            "var_dbconnection_label": "PM Database",
            "var_sql": "",
            "var_null": 0,
            "var_default": "",
            "var_accepted_values": "[]",
            "inp_doc_uid": ""
        }, {
            "var_uid": "9869689005ef0e40d521746091822234",
            "prj_uid": "1470081615ddaa06442a500075126187",
            "var_name": "S_VALIDATION_TYPE",
            "var_field_type": "string",
            "var_field_size": 10,
            "var_label": "string",
            "var_dbconnection": "workflow",
            "var_dbconnection_label": "PM Database",
            "var_sql": "",
            "var_null": 0,
            "var_default": "",
            "var_accepted_values": "[]",
            "inp_doc_uid": ""
        }, {
            "var_uid": "9515346325ef0e40d4cf454050826484",
            "prj_uid": "1470081615ddaa06442a500075126187",
            "var_name": "S_INFORMATION_CASE_DATA",
            "var_field_type": "string",
            "var_field_size": 10,
            "var_label": "string",
            "var_dbconnection": "workflow",
            "var_dbconnection_label": "PM Database",
            "var_sql": "",
            "var_null": 0,
            "var_default": "",
            "var_accepted_values": "[]",
            "inp_doc_uid": ""
        }, {
            "var_uid": "9664793285ef0e40d4127e2062752506",
            "prj_uid": "1470081615ddaa06442a500075126187",
            "var_name": "S_GROUP_DESIGN",
            "var_field_type": "string",
            "var_field_size": 10,
            "var_label": "string",
            "var_dbconnection": "workflow",
            "var_dbconnection_label": "PM Database",
            "var_sql": "",
            "var_null": 0,
            "var_default": "",
            "var_accepted_values": "[]",
            "inp_doc_uid": ""
        }, {
            "var_uid": "5687201445ef0e40d4f3f36002423136",
            "prj_uid": "1470081615ddaa06442a500075126187",
            "var_name": "S_DESIGN_CHECK_USER",
            "var_field_type": "string",
            "var_field_size": 10,
            "var_label": "string",
            "var_dbconnection": "workflow",
            "var_dbconnection_label": "PM Database",
            "var_sql": "",
            "var_null": 0,
            "var_default": "",
            "var_accepted_values": "[]",
            "inp_doc_uid": ""
        }, {
            "var_uid": "2555406205ef0e40d518053070941353",
            "prj_uid": "1470081615ddaa06442a500075126187",
            "var_name": "S_GROUP_INSTALLATION",
            "var_field_type": "string",
            "var_field_size": 10,
            "var_label": "string",
            "var_dbconnection": "workflow",
            "var_dbconnection_label": "PM Database",
            "var_sql": "",
            "var_null": 0,
            "var_default": "",
            "var_accepted_values": "[]",
            "inp_doc_uid": ""
        }, {
            "var_uid": "1753404275ef0e40d4a5571056708843",
            "prj_uid": "1470081615ddaa06442a500075126187",
            "var_name": "S_INSTALLATION_CHECK_USER",
            "var_field_type": "string",
            "var_field_size": 10,
            "var_label": "string",
            "var_dbconnection": "workflow",
            "var_dbconnection_label": "PM Database",
            "var_sql": "",
            "var_null": 0,
            "var_default": "",
            "var_accepted_values": "[]",
            "inp_doc_uid": ""
        }, {
            "var_uid": "7631959425ef0e40d519e35082445174",
            "prj_uid": "1470081615ddaa06442a500075126187",
            "var_name": "S_GROUP_OPERATION",
            "var_field_type": "string",
            "var_field_size": 10,
            "var_label": "string",
            "var_dbconnection": "workflow",
            "var_dbconnection_label": "PM Database",
            "var_sql": "",
            "var_null": 0,
            "var_default": "",
            "var_accepted_values": "[]",
            "inp_doc_uid": ""
        }, {
            "var_uid": "5165927405ef0e40d567ad2094076342",
            "prj_uid": "1470081615ddaa06442a500075126187",
            "var_name": "S_OPERATION_CHECK_USER",
            "var_field_type": "string",
            "var_field_size": 10,
            "var_label": "string",
            "var_dbconnection": "workflow",
            "var_dbconnection_label": "PM Database",
            "var_sql": "",
            "var_null": 0,
            "var_default": "",
            "var_accepted_values": "[]",
            "inp_doc_uid": ""
        }, {
            "var_uid": "2640457985ef0e40d56f585003405364",
            "prj_uid": "1470081615ddaa06442a500075126187",
            "var_name": "S_GROUP_QSE",
            "var_field_type": "string",
            "var_field_size": 10,
            "var_label": "string",
            "var_dbconnection": "workflow",
            "var_dbconnection_label": "PM Database",
            "var_sql": "",
            "var_null": 0,
            "var_default": "",
            "var_accepted_values": "[]",
            "inp_doc_uid": ""
        }, {
            "var_uid": "3394512125ef0e40d5bf970044674573",
            "prj_uid": "1470081615ddaa06442a500075126187",
            "var_name": "S_QSE_CHECK_USER",
            "var_field_type": "string",
            "var_field_size": 10,
            "var_label": "string",
            "var_dbconnection": "workflow",
            "var_dbconnection_label": "PM Database",
            "var_sql": "",
            "var_null": 0,
            "var_default": "",
            "var_accepted_values": "[]",
            "inp_doc_uid": ""
        }, {
            "var_uid": "5448977135ef0e40d597583081038042",
            "prj_uid": "1470081615ddaa06442a500075126187",
            "var_name": "S_GROUP_PERFORMANCE",
            "var_field_type": "string",
            "var_field_size": 10,
            "var_label": "string",
            "var_dbconnection": "workflow",
            "var_dbconnection_label": "PM Database",
            "var_sql": "",
            "var_null": 0,
            "var_default": "",
            "var_accepted_values": "[]",
            "inp_doc_uid": ""
        }, {
            "var_uid": "8083042675ef0e40d508e89066618227",
            "prj_uid": "1470081615ddaa06442a500075126187",
            "var_name": "S_PERFORMANCE_CHECK_USER",
            "var_field_type": "string",
            "var_field_size": 10,
            "var_label": "string",
            "var_dbconnection": "workflow",
            "var_dbconnection_label": "PM Database",
            "var_sql": "",
            "var_null": 0,
            "var_default": "",
            "var_accepted_values": "[]",
            "inp_doc_uid": ""
        }]
    }]
}